{
  "data": [
    {
      "key": "Data of Instrument",
      "type": "dict",
      "value": [
{
  "key": "Microscope used",
  "type": "dict",
  "value": [
    {
      "key": "Strata 400S",
      "type": "bool",
      "value": null
    },
    {
      "key": "Auriga 60",
      "type": "bool",
      "value": null
    },
    {
      "key": "Solaris X",
      "type": "bool",
      "value": null
    }
  ]
},
        {
          "key": "Vacuum Conditions",
          "type": "dict",
          "value": [
            {
              "key": "Chamber",
              "type": "float",
              "unit": "mbar",
              "value": null
            },
            {
              "key": "E-Column",
              "type": "float",
              "unit": "mbar",
              "value": null
            },
            {
              "key": "I-Column",
              "type": "float",
              "unit": "mbar",
              "value": null
            }
          ]
        }
      ]
    }
    ]
    }
