{
  "created_at": "2022-10-21T13:49:27.370628+00:00",
  "creator": {
    "created_at": "2021-03-09T15:02:33.722338+00:00",
    "id": 105,
    "identity": {
      "created_at": "2021-03-09T15:02:33.738346+00:00",
      "displayname": "Sabine Schlabach",
      "identity_name": "Shibboleth",
      "identity_type": "shib",
      "last_modified": "2021-03-09T15:02:33.738353+00:00",
      "username": "pw5602@kit.edu"
    },
    "is_sysadmin": false,
    "last_modified": "2022-03-24T14:55:28.466657+00:00",
    "state": "active",
    "system_role": "member"
  },
  "data": [
    {
      "key": "Researcher Name",
      "type": "str",
      "value": null
    },
    {
      "key": "Date of Experiment",
      "type": "date",
      "value": null
    },
    {
      "key": "Contact / Project / Sample information",
      "type": "dict",
      "value": [
        {
          "key": "KNMFi Proposal Number",
          "type": "str",
          "value": null
        },
        {
          "key": "Sample Identification / Labelling / Tag",
          "type": "str",
          "value": null
        },
        {
          "key": "Persistent ID of Record Type \"Material\" in Kadi4Mat",
          "type": "str",
          "value": null
        },
        {
          "key": "Persistent ID of Synthesis ELN",
          "type": "str",
          "value": null
        },
        {
          "key": "which ELN used for Synthesis",
          "type": "list",
          "value": [
            {
              "type": "str",
              "validation": {
                "options": [
                  "Chemotion",
                  "LabIMotion",
                  "eLabFTW"
                ]
              },
              "value": null
            }
          ]
        }
      ]
    },
    {
      "key": "Data of Instrument",
      "type": "dict",
      "value": [
        {
          "key": "Microscope used",
          "type": "str",
          "validation": {
            "options": [
              "Strata 400S",
              "Auriga 60",
              "Solaris X"
            ],
            "required": true
          },
          "value": null
        },
        {
          "key": "Vacuum Conditions",
          "type": "dict",
          "value": [
            {
              "key": "Chamber",
              "type": "float",
              "unit": "mbar",
              "value": null
            },
            {
              "key": "E-Column",
              "type": "float",
              "unit": "mbar",
              "value": null
            },
            {
              "key": "I-Column",
              "type": "float",
              "unit": "mbar",
              "value": null
            }
          ]
        }
      ]
    },
    {
      "key": "Experimental Details",
      "type": "dict",
      "value": [
        {
          "key": "protective layer",
          "type": "dict",
          "value": [
            {
              "key": "Material",
              "type": "list",
              "value": [
                {
                  "type": "str",
                  "validation": {
                    "options": [
                      "Pt",
                      "C",
                      "W",
                      "insulator"
                    ],
                    "required": true
                  },
                  "value": null
                }
              ]
            },
            {
              "key": "E-Beam depo",
              "type": "dict",
              "value": [
                {
                  "key": "HT",
                  "type": "float",
                  "unit": null,
                  "value": null
                },
                {
                  "key": "Aperture/Current",
                  "type": "float",
                  "unit": null,
                  "value": null
                },
                {
                  "key": "Dimensions",
                  "type": "dict",
                  "value": [
                    {
                      "key": "x",
                      "type": "float",
                      "unit": null,
                      "value": null
                    },
                    {
                      "key": "y",
                      "type": "float",
                      "unit": null,
                      "value": null
                    },
                    {
                      "key": "z",
                      "type": "float",
                      "unit": null,
                      "value": null
                    }
                  ]
                }
              ]
            },
            {
              "key": "I-Beam depo",
              "type": "dict",
              "value": [
                {
                  "key": "HT",
                  "type": "float",
                  "unit": null,
                  "value": null
                },
                {
                  "key": "Aperture/Current",
                  "type": "float",
                  "unit": null,
                  "value": null
                },
                {
                  "key": "Dimensions",
                  "type": "dict",
                  "value": [
                    {
                      "key": "x",
                      "type": "float",
                      "unit": null,
                      "value": null
                    },
                    {
                      "key": "y",
                      "type": "float",
                      "unit": null,
                      "value": null
                    },
                    {
                      "key": "z",
                      "type": "float",
                      "unit": null,
                      "value": null
                    }
                  ]
                }
              ]
            }
          ]
        }
      ]
    },
    {
      "key": "Trench",
      "type": "dict",
      "value": [
        {
          "key": "Stage Tilt",
          "type": "float",
          "unit": "°",
          "value": null
        },
        {
          "key": "HT I-Beam",
          "type": "float",
          "unit": null,
          "value": null
        },
        {
          "key": "Current I-Beam",
          "type": "float",
          "unit": null,
          "value": null
        },
        {
          "key": "Dimensions",
          "type": "dict",
          "value": [
            {
              "key": "x",
              "type": "float",
              "unit": null,
              "value": null
            },
            {
              "key": "y",
              "type": "float",
              "unit": null,
              "value": null
            },
            {
              "key": "z",
              "type": "float",
              "unit": null,
              "value": null
            },
            {
              "key": "type of milling (stairstep, multipass, ...)",
              "type": "str",
              "value": null
            }
          ]
        }
      ]
    },
    {
      "key": "\"U\"-cut and lift-out",
      "type": "dict",
      "value": [
        {
          "key": "HT I-Beam",
          "type": "float",
          "unit": "kV",
          "value": null
        },
        {
          "key": "Current I-Beam",
          "type": "float",
          "unit": null,
          "value": null
        },
        {
          "key": "Comments",
          "type": "str",
          "value": null
        },
        {
          "key": "used Grid type",
          "type": "list",
          "value": [
            {
              "type": "str",
              "validation": {
                "options": [
                  "Cu",
                  "Mo",
                  "other (specify)"
                ],
                "required": true
              },
              "value": null
            },
            {
              "type": "str",
              "value": null
            }
          ]
        },
        {
          "key": "used lamella position",
          "type": "list",
          "value": [
            {
              "type": "str",
              "validation": {
                "options": [
                  "\"Flag\" like",
                  "\"Center\" position"
                ],
                "required": true
              },
              "value": null
            }
          ]
        }
      ]
    },
    {
      "key": "Thinning-1",
      "type": "dict",
      "value": [
        {
          "key": "Stage Tilt",
          "type": "float",
          "unit": "°",
          "value": null
        },
        {
          "key": "HT I-Beam",
          "type": "float",
          "unit": null,
          "value": null
        },
        {
          "key": "Current I-Beam",
          "type": "float",
          "unit": null,
          "value": null
        },
        {
          "key": "Dimensions",
          "type": "dict",
          "value": [
            {
              "key": "x",
              "type": "float",
              "unit": null,
              "value": null
            },
            {
              "key": "y",
              "type": "float",
              "unit": null,
              "value": null
            },
            {
              "key": "z",
              "type": "float",
              "unit": null,
              "value": null
            },
            {
              "key": "type of milling (CCS/...)",
              "type": "str",
              "value": null
            }
          ]
        }
      ]
    },
    {
      "key": "Thinning-2",
      "type": "dict",
      "value": [
        {
          "key": "Stage Tilt",
          "type": "float",
          "unit": "°",
          "value": null
        },
        {
          "key": "HT I-Beam",
          "type": "float",
          "unit": null,
          "value": null
        },
        {
          "key": "Current I-Beam",
          "type": "float",
          "unit": null,
          "value": null
        },
        {
          "key": "Dimensions",
          "type": "dict",
          "value": [
            {
              "key": "x",
              "type": "float",
              "unit": null,
              "value": null
            },
            {
              "key": "y",
              "type": "float",
              "unit": null,
              "value": null
            },
            {
              "key": "z",
              "type": "float",
              "unit": null,
              "value": null
            },
            {
              "key": "type of milling (CCS/...)",
              "type": "str",
              "value": null
            }
          ]
        }
      ]
    },
    {
      "key": "Polishing-1",
      "type": "dict",
      "value": [
        {
          "key": "Stage Tilt",
          "type": "float",
          "unit": "°",
          "value": null
        },
        {
          "key": "HT I-Beam",
          "type": "float",
          "unit": null,
          "value": null
        },
        {
          "key": "Current I-Beam",
          "type": "float",
          "unit": null,
          "value": null
        },
        {
          "key": "Dimensions",
          "type": "dict",
          "value": [
            {
              "key": "x",
              "type": "float",
              "unit": null,
              "value": null
            },
            {
              "key": "y",
              "type": "float",
              "unit": null,
              "value": null
            },
            {
              "key": "z",
              "type": "float",
              "unit": null,
              "value": null
            },
            {
              "key": "type of milling (CCS/...)",
              "type": "float",
              "unit": null,
              "value": null
            }
          ]
        }
      ]
    },
    {
      "key": "Polishing-2",
      "type": "dict",
      "value": [
        {
          "key": "Stage Tilt",
          "type": "float",
          "unit": "°",
          "value": null
        },
        {
          "key": "HT I-Beam",
          "type": "float",
          "unit": null,
          "value": null
        },
        {
          "key": "Current I-Beam",
          "type": "float",
          "unit": null,
          "value": null
        },
        {
          "key": "Dimensions",
          "type": "dict",
          "value": [
            {
              "key": "x",
              "type": "float",
              "unit": null,
              "value": null
            },
            {
              "key": "y",
              "type": "float",
              "unit": null,
              "value": null
            },
            {
              "key": "z",
              "type": "float",
              "unit": null,
              "value": null
            },
            {
              "key": "type of milling (CCS/...)",
              "type": "float",
              "unit": null,
              "value": null
            }
          ]
        }
      ]
    }
  ],
  "description": "|      |\n| -------- |\n| Template for FIB TEM lamella preparation | \n| requires KNMF Proposal Number | \n| please link to the sample-template!  TEM/FIB sample questionnaire     |\n| please link to the SEM/FIB @INT-KNMF template |\n| requires distinct experimental details  |\n\n\n\n| Column 1 | Column 2 | Column 3 |\n| -------- | -------- | -------- |\n| Text     | Text     | Text     |\n\n",
  "id": 290,
  "identifier": "fib-tem-lamella-int-knmfi-template",
  "last_modified": "2023-04-05T12:41:29.794362+00:00",
  "plain_description": "Template for FIB TEM lamella preparation requires KNMF Proposal Number please link to the sample-template! TEM/FIB sample questionnaire please link to the SEM/FIB @INT-KNMF template requires distinct experimental details Column 1 Column 2 Column 3 Text Text Text",
  "state": "active",
  "title": "FIB-TEM-Lamella @INT-KNMFi Template",
  "type": "extras",
  "visibility": "private"
}