,capacity_charge,capacity_discharge,coulombic_efficiency
0,0.3024824531602746,0.2784297818914362,0.9204824246248301
1,0.266833986173708,0.27931828998448066,1.0467867830098876
2,0.267000420791684,0.27932486350638464,1.0461588887319255
3,0.2665280089768945,0.2792196836248922,1.0476185399677749
